// Jest Snapshot v1, https://goo.gl/fbAQLP

exports[`DependenciesTableRow component when a dependency is loaded matches the snapshot 1`] = `
<div
  class="gl-responsive-table-row p-2"
>
  <div
    class="table-section section-20 section-wrap"
  >
    <div
      class="table-mobile-header"
      role="rowheader"
    >
      Component
    </div>
     
    <div
      class="table-mobile-content"
    >
      left-pad
    </div>
  </div>
   
  <div
    class="table-section section-15"
  >
    <div
      class="table-mobile-header"
      role="rowheader"
    >
      Version
    </div>
     
    <div
      class="table-mobile-content"
    >
      0.0.3
    </div>
  </div>
   
  <div
    class="table-section section-20 section-wrap"
  >
    <div
      class="table-mobile-header"
      role="rowheader"
    >
      Packager
    </div>
     
    <div
      class="table-mobile-content"
    >
      JavaScript (yarn)
    </div>
  </div>
   
  <div
    class="table-section flex-grow-1 section-wrap"
  >
    <div
      class="table-mobile-header"
      role="rowheader"
    >
      Location
    </div>
     
    <div
      class="table-mobile-content"
    >
      <a
        href="/a-group/a-project/blob/da39a3ee5e6b4b0d3255bfef95601890afd80709/yarn.lock"
      >
        yarn.lock
      </a>
    </div>
  </div>
</div>
`;

exports[`DependenciesTableRow component when loading matches the snapshot 1`] = `
<div
  class="gl-responsive-table-row p-2"
>
  <glskeletonloading-stub
    class="d-flex flex-column justify-content-center"
    lines="1"
  />
</div>
`;

exports[`DependenciesTableRow component when passed no props matches the snapshot 1`] = `
<div
  class="gl-responsive-table-row p-2"
>
  <glskeletonloading-stub
    class="d-flex flex-column justify-content-center"
    lines="1"
  />
</div>
`;
